…
``` r
pb <- progress_estimated(total_pages)
if(!exists("listings_df")){
  (listings_df <- map_df(1:total_pages, ~get_listings(get_page(.x, pb))))
}
```

    ## # A tibble: 1,585 × 2
    ##                                                                           link
    ##                                                                          <chr>
    ## 1  http://www.propwall.my/classifieds/13904619/vista-kiara-mont-kiara-condomin
    ## 2  http://www.propwall.my/classifieds/13904590/mont-kiara-sophia-mont-kiara-co
    ## 3  http://www.propwall.my/classifieds/13856803/28-mont-kiara-mont-kiara-condom
    ## 4  http://www.propwall.my/classifieds/13909194/kiaramas-sutera-mont-kiara-cond
    ## 5  http://www.propwall.my/classifieds/13829707/kiara-hills-mont-kiara-house-fo
    ## 6  http://www.propwall.my/classifieds/11830564/10-mont-kiara-mont-kiara-condom
    ## 7  http://www.propwall.my/classifieds/13640370/kiara-designer-suites-mont-kiar
    ## 8  http://www.propwall.my/classifieds/13643311/hijauan-kiara-mont-kiara-condom
    ## 9  http://www.propwall.my/classifieds/13646440/kiaraville-mont-kiara-condomini
    ## 10 http://www.propwall.my/classifieds/13643359/verve-suites-mont-kiara-condomi
    ## # ... with 1,575 more rows, and 1 more variables: description <chr>
